EESchema Schematic File Version 4
EELAYER 30 0
EELAYER END
$Descr A2 23386 16535
encoding utf-8
Sheet 1 1
Title ""
Date ""
Rev ""
Comp ""
Comment1 ""
Comment2 ""
Comment3 ""
Comment4 ""
$EndDescr
$Comp
L fab:CAP-UNPOLARIZEDFAB C2
U 1 1 5EF1716B
P 21100 2100
F 0 "C2" H 21100 1850 45  0000 R CNN
F 1 "1 uF" H 21100 1950 45  0000 R CNN
F 2 "fab:R_1206" H 21130 2250 20  0001 C CNN
F 3 "" H 21100 2100 50  0001 C CNN
	1    21100 2100
	-1   0    0    1   
$EndComp
Text GLabel 20900 4050 0    50   Input ~ 0
DIS
Text GLabel 21500 4050 2    50   Input ~ 0
S
Text GLabel 21300 3400 2    50   Input ~ 0
V5V
Text GLabel 21500 4550 2    50   Input ~ 0
GND
Text Notes 20100 3150 0    50   ~ 0
DISCHARGE
$Comp
L fab:RES-US1206FAB R14
U 1 1 5EF1D825
P 21200 3750
F 0 "R14" V 21158 3818 45  0000 L CNN
F 1 "10 K" V 21242 3818 45  0000 L CNN
F 2 "fab:R_1206" H 21230 3900 20  0001 C CNN
F 3 "" H 21200 3750 50  0001 C CNN
	1    21200 3750
	0    1    1    0   
$EndComp
Wire Wire Line
	21200 3400 21300 3400
Text GLabel 20550 1850 0    50   Input ~ 0
V5V
Text GLabel 21950 1850 2    50   Input ~ 0
GND
Wire Wire Line
	20800 1550 21000 1550
Wire Wire Line
	21300 1550 21750 1550
Wire Wire Line
	20800 2100 21000 2100
Wire Wire Line
	21300 2100 21750 2100
$Comp
L fab:RESONATOR M3
U 1 1 5EFC6DC1
P 9350 1750
F 0 "M3" H 9350 2004 45  0000 C CNN
F 1 "RESONATOR 20MHZ" H 9350 1920 45  0000 C CNN
F 2 "fab-EFOBM" H 9380 1900 20  0001 C CNN
F 3 "" H 9350 1750 50  0001 C CNN
	1    9350 1750
	1    0    0    -1  
$EndComp
Text GLabel 8700 1750 0    50   Input ~ 0
XTAL1
Text GLabel 9550 2250 2    50   Input ~ 0
GND
Wire Wire Line
	9550 2250 9350 2250
Wire Wire Line
	9350 2250 9350 2050
Wire Wire Line
	8700 1750 9050 1750
Wire Wire Line
	9650 1750 9900 1750
Text Notes 8150 1250 0    50   ~ 0
RESONATOR 20MHZ
$Comp
L fab:ATMEGA16U2-TQ M8
U 1 1 5F0358DB
P 11650 7050
F 0 "M8" H 11700 8236 45  0000 C CNN
F 1 "ATMEGA16U2-TQ" H 11450 8100 45  0000 L BNN
F 2 "fab-TQFP32-08THIN" H 11680 7200 20  0001 C CNN
F 3 "" H 11650 7050 50  0001 C CNN
	1    11650 7050
	1    0    0    -1  
$EndComp
Text GLabel 10150 6550 0    50   Input ~ 0
D+
Text GLabel 10150 6650 0    50   Input ~ 0
D-
$Comp
L Timer:LM555xN U1
U 1 1 5EF0D551
P 18450 4200
F 0 "U1" H 18000 3750 50  0000 C CNN
F 1 "LM555xN" H 18000 3600 50  0000 C CNN
F 2 "Package_DIP:DIP-8_W7.62mm" H 19100 3800 50  0001 C CNN
F 3 "http://www.ti.com/lit/ds/symlink/lm555.pdf" H 19300 3800 50  0001 C CNN
	1    18450 4200
	1    0    0    -1  
$EndComp
Text GLabel 18450 4700 3    50   Input ~ 0
GND
$Comp
L fab:CAP-UNPOLARIZEDFAB C4
U 1 1 5EF13D7D
P 17650 4000
F 0 "C4" H 17600 4214 45  0000 C CNN
F 1 "0.001 uF" H 17600 4130 45  0000 C CNN
F 2 "fab:R_1206" H 17680 4150 20  0001 C CNN
F 3 "" H 17650 4000 50  0001 C CNN
	1    17650 4000
	1    0    0    -1  
$EndComp
Wire Wire Line
	18450 4700 18450 4600
Text GLabel 18950 4200 2    50   Input ~ 0
DIS
Text GLabel 17200 4000 0    50   Input ~ 0
GND
Text GLabel 18550 3550 2    50   Input ~ 0
V5V
Text GLabel 17650 4400 0    50   Input ~ 0
V5V
Wire Wire Line
	17650 4400 17950 4400
Wire Wire Line
	17450 4000 17200 4000
Wire Wire Line
	17750 4000 17850 4000
Text GLabel 18950 4400 2    50   Input ~ 0
T
Text GLabel 18950 4000 2    50   Input ~ 0
TIMER
Text Notes 16800 3200 0    50   ~ 0
555 TIMER IC
Text GLabel 18000 3550 2    50   Input ~ 0
T
Wire Wire Line
	17850 3550 17850 4000
Connection ~ 17850 4000
Wire Wire Line
	17850 4000 17950 4000
Text GLabel 18400 1650 2    50   Input ~ 0
S
Text GLabel 18400 2050 2    50   Input ~ 0
T
$Comp
L Connector:AudioJack5 J2
U 1 1 5EF51529
P 18200 1850
F 0 "J2" H 18107 2275 50  0000 C CNN
F 1 "AudioJack5" H 18107 2184 50  0000 C CNN
F 2 "" H 18200 1850 50  0001 C CNN
F 3 "~" H 18200 1850 50  0001 C CNN
	1    18200 1850
	1    0    0    -1  
$EndComp
Text Notes 17000 1150 0    50   ~ 0
JACK 3.5mm (input)
Text Notes 20050 1150 0    50   ~ 0
INPUT FILTERING
Wire Wire Line
	20800 1550 20800 1850
Wire Wire Line
	21750 1550 21750 1850
Wire Wire Line
	20550 1850 20800 1850
Connection ~ 20800 1850
Wire Wire Line
	20800 1850 20800 2100
Wire Wire Line
	21950 1850 21750 1850
Connection ~ 21750 1850
Wire Wire Line
	21750 1850 21750 2100
NoConn ~ 17950 4200
Wire Wire Line
	21200 3400 21200 3550
Wire Wire Line
	21200 3950 21200 4050
Wire Wire Line
	21500 4050 21200 4050
Connection ~ 21200 4050
$Comp
L fab:CAP-UNPOLARIZEDFAB C3
U 1 1 5F206B5D
P 21200 1550
F 0 "C3" H 21150 1764 45  0000 C CNN
F 1 "41uF" H 21150 1680 45  0000 C CNN
F 2 "fab-C1206FAB" H 21230 1700 20  0001 C CNN
F 3 "" H 21200 1550 50  0001 C CNN
	1    21200 1550
	1    0    0    -1  
$EndComp
$Comp
L fab:CAP-UNPOLARIZEDFAB C5
U 1 1 5F20DD20
P 21150 4550
F 0 "C5" H 21100 4336 45  0000 C CNN
F 1 "470uF" H 21100 4420 45  0000 C CNN
F 2 "fab-C1206FAB" H 21180 4700 20  0001 C CNN
F 3 "" H 21150 4550 50  0001 C CNN
	1    21150 4550
	-1   0    0    1   
$EndComp
Wire Wire Line
	20900 4050 21000 4050
Wire Wire Line
	21500 4550 21350 4550
Wire Wire Line
	21050 4550 21000 4550
Wire Wire Line
	21000 4550 21000 4050
Connection ~ 21000 4050
Wire Wire Line
	21000 4050 21200 4050
Text GLabel 13250 7150 2    50   Input ~ 0
TIMER
Text GLabel 10150 7750 0    50   Input ~ 0
GND
Text GLabel 10150 7850 0    50   Input ~ 0
V5V
Text GLabel 10150 6750 0    50   Input ~ 0
V5V
Text GLabel 10150 7050 0    50   Input ~ 0
V5V
Text GLabel 10150 6450 0    50   Input ~ 0
GND
Text GLabel 9350 6350 0    50   Input ~ 0
GND
$Comp
L fab:CAP-UNPOLARIZEDFAB C6
U 1 1 5F2EAD29
P 9800 6350
F 0 "C6" H 9750 6564 45  0000 C CNN
F 1 "1uF" H 9750 6480 45  0000 C CNN
F 2 "fab-C1206FAB" H 9830 6500 20  0001 C CNN
F 3 "" H 9800 6350 50  0001 C CNN
	1    9800 6350
	1    0    0    -1  
$EndComp
Wire Wire Line
	9350 6350 9600 6350
Wire Wire Line
	9900 6350 10150 6350
Text GLabel 9900 1750 2    50   Input ~ 0
XTAL2
Text GLabel 10150 7350 0    50   Input ~ 0
XTAL1
Text GLabel 10150 7450 0    50   Input ~ 0
XTAL2
Text GLabel 11500 1850 0    50   Input ~ 0
MISO
Text GLabel 11500 1950 0    50   Input ~ 0
SCK
Text GLabel 11500 2050 0    50   Input ~ 0
RST
Wire Wire Line
	11500 2050 11900 2050
Wire Wire Line
	11500 1950 11900 1950
Wire Wire Line
	11500 1850 11900 1850
Text GLabel 12650 1950 2    50   Input ~ 0
MOSI
Text GLabel 12650 2050 2    50   Input ~ 0
GND
Text GLabel 13250 6850 2    50   Input ~ 0
MISO
Text GLabel 13250 6950 2    50   Input ~ 0
MOSI
Text GLabel 13250 7050 2    50   Input ~ 0
SCK
Text Notes 10900 1250 0    50   ~ 0
ISP
Wire Wire Line
	12200 1950 12650 1950
Wire Wire Line
	12200 1850 12650 1850
$Comp
L fab:AVRISP M4
U 1 1 5EFC8D43
P 12000 1950
F 0 "M4" H 12098 2304 45  0000 C CNN
F 1 "AVRISP" H 12098 2220 45  0000 C CNN
F 2 "fab-2X03" H 12030 2100 20  0001 C CNN
F 3 "" H 12000 1950 50  0001 C CNN
	1    12000 1950
	1    0    0    -1  
$EndComp
Wire Wire Line
	12200 2050 12650 2050
Text GLabel 12650 1850 2    50   Input ~ 0
RESET
Text GLabel 11150 5500 2    50   Input ~ 0
RESET
Text GLabel 11150 4700 2    50   Input ~ 0
V5V
$Comp
L fab:RES-US1206FAB R18
U 1 1 5F4B2963
P 11050 5100
F 0 "R18" V 11008 5168 45  0000 L CNN
F 1 "10K" V 11092 5168 45  0000 L CNN
F 2 "fab-R1206FAB" H 11080 5250 20  0001 C CNN
F 3 "" H 11050 5100 50  0001 C CNN
	1    11050 5100
	0    1    1    0   
$EndComp
Wire Wire Line
	18000 3550 17850 3550
Wire Wire Line
	18550 3550 18450 3550
Wire Wire Line
	18450 3550 18450 3800
Wire Wire Line
	11150 4700 11050 4700
Wire Wire Line
	11050 4700 11050 4900
Wire Wire Line
	11150 5500 11050 5500
Wire Wire Line
	11050 5500 11050 5950
Wire Wire Line
	11050 5300 11050 5500
Connection ~ 11050 5500
Wire Notes Line
	3650 10250 1000 10250
Wire Notes Line
	6600 7900 6600 10250
$Comp
L fab:NMOSFETSOT23 T3
U 1 1 5F0A64D5
P 2500 11650
F 0 "T3" H 2608 11692 45  0000 L CNN
F 1 "NMOSFETSOT23" H 2608 11608 45  0000 L CNN
F 2 "fab-SOT-23" H 2530 11800 20  0001 C CNN
F 3 "" H 2500 11650 50  0001 C CNN
	1    2500 11650
	1    0    0    -1  
$EndComp
Text GLabel 1850 11750 0    50   Input ~ 0
GMOSFET_03
Wire Wire Line
	2300 11750 2100 11750
Text GLabel 2800 11250 2    50   Input ~ 0
DMOSFET_03
Wire Wire Line
	2800 11250 2500 11250
Wire Wire Line
	2500 11250 2500 11450
Text GLabel 2850 12500 2    50   Input ~ 0
GND
Connection ~ 2100 11750
Wire Wire Line
	2100 11750 1850 11750
$Comp
L fab:RES-US1206FAB R6
U 1 1 5F0A64E7
P 2100 12100
F 0 "R6" V 2058 12168 45  0000 L CNN
F 1 "10K" V 2142 12168 45  0000 L CNN
F 2 "fab-R1206FAB" H 2130 12250 20  0001 C CNN
F 3 "" H 2100 12100 50  0001 C CNN
	1    2100 12100
	0    1    1    0   
$EndComp
Wire Wire Line
	2100 11900 2100 11750
Wire Wire Line
	2100 12300 2100 12500
Text Notes 1100 10750 0    50   ~ 0
MOSFET (03)
Wire Notes Line
	1000 10550 3650 10550
Wire Notes Line
	3650 10550 3650 12900
Wire Notes Line
	3650 12900 1000 12900
Wire Notes Line
	1000 12900 1000 10550
Text Notes 4050 10750 0    50   ~ 0
MOSFET (04)
Wire Notes Line
	3950 10550 6600 10550
Wire Notes Line
	6600 10550 6600 12900
Wire Notes Line
	6600 12900 3950 12900
Wire Notes Line
	3950 12900 3950 10550
Text Notes 1100 13450 0    50   ~ 0
MOSFET (05)
Wire Notes Line
	1000 13250 3650 13250
Wire Notes Line
	3650 13250 3650 15600
Wire Notes Line
	3650 15600 1000 15600
Wire Notes Line
	1000 15600 1000 13250
Wire Notes Line
	1000 3050 1000 1100
Wire Notes Line
	3300 3050 1000 3050
Wire Notes Line
	3300 1100 3300 3050
Wire Notes Line
	1000 1100 3300 1100
Wire Notes Line
	3500 2800 3500 1100
Wire Notes Line
	5850 2800 3500 2800
Wire Notes Line
	5850 1100 5850 2800
Wire Notes Line
	3500 1100 5850 1100
Wire Notes Line
	1000 5250 1000 3300
Wire Notes Line
	5250 5250 1000 5250
Wire Notes Line
	5250 3300 5250 5250
Wire Notes Line
	1000 3300 5250 3300
Wire Notes Line
	1000 7150 1000 5450
Wire Notes Line
	3100 7150 1000 7150
Wire Notes Line
	3100 5450 3100 7150
Wire Notes Line
	1000 5450 3100 5450
Wire Notes Line
	3950 10250 3950 7900
Wire Notes Line
	3950 7900 6600 7900
Text Notes 4050 8100 0    50   ~ 0
MOSFET (02)
Wire Notes Line
	1000 10250 1000 7900
Wire Notes Line
	3650 7900 3650 10250
Wire Notes Line
	1000 7900 3650 7900
Text Notes 1100 8100 0    50   ~ 0
MOSFET (01)
Wire Wire Line
	1850 2600 2000 2600
Wire Wire Line
	1850 2150 1850 2600
Wire Wire Line
	2000 2050 2000 2250
Wire Wire Line
	1850 2050 2000 2050
Wire Wire Line
	2550 2250 2400 2250
$Comp
L fab:RES-US1206FAB R1
U 1 1 5F41E0E6
P 2200 2250
F 0 "R1" H 2200 2444 45  0000 C CNN
F 1 "22R" H 2200 2360 45  0000 C CNN
F 2 "fab-R1206FAB" H 2230 2400 20  0001 C CNN
F 3 "" H 2200 2250 50  0001 C CNN
	1    2200 2250
	1    0    0    -1  
$EndComp
Text GLabel 2550 2250 2    50   Input ~ 0
D-
Wire Wire Line
	2550 2600 2400 2600
$Comp
L fab:RES-US1206FAB R2
U 1 1 5F40673C
P 2200 2600
F 0 "R2" H 2200 2794 45  0000 C CNN
F 1 "22R" H 2200 2710 45  0000 C CNN
F 2 "fab-R1206FAB" H 2230 2750 20  0001 C CNN
F 3 "" H 2200 2600 50  0001 C CNN
	1    2200 2600
	1    0    0    -1  
$EndComp
Text Notes 1100 5650 0    50   ~ 0
DC JACK
Wire Wire Line
	1600 4250 1950 4250
Text GLabel 4300 2150 0    50   Input ~ 0
V-BUCK
Text GLabel 2250 1950 2    50   Input ~ 0
V-USB
Text Notes 3600 1300 0    50   ~ 0
PROGRAMMER SWITCH
Text Notes 1100 1250 0    50   ~ 0
MICRO USB
Text GLabel 2550 2600 2    50   Input ~ 0
D+
Wire Wire Line
	1850 1950 2250 1950
Wire Wire Line
	2250 1850 1850 1850
Text GLabel 2250 1850 2    50   Input ~ 0
GND
Wire Wire Line
	5250 2050 4900 2050
Text GLabel 5250 2050 2    50   Input ~ 0
V5V
Wire Wire Line
	4500 1950 4300 1950
Text GLabel 4300 1950 0    50   Input ~ 0
V-USB
Wire Wire Line
	4300 2150 4500 2150
$Comp
L fab:SLIDE-SWITCH S1
U 1 1 5F055FBF
P 4700 2050
F 0 "S1" H 4800 1650 45  0000 C CNN
F 1 "SLIDE-SWITCH" H 4750 1750 45  0000 C CNN
F 2 "fab-AYZ0102AGRLC" H 4730 2200 20  0001 C CNN
F 3 "" H 4700 2050 50  0001 C CNN
	1    4700 2050
	-1   0    0    1   
$EndComp
$Comp
L fab:MICRO-USB_ORIG M1
U 1 1 5F04F099
P 1650 1950
F 0 "M1" V 1250 1900 45  0000 L CNN
F 1 "MICRO-USB_ORIG" V 1350 1700 45  0000 L CNN
F 2 "fab:fab-DX4R005HJ5_64" H 1680 2100 20  0001 C CNN
F 3 "" H 1650 1950 50  0001 C CNN
	1    1650 1950
	0    1    1    0   
$EndComp
$Comp
L fab:CAP-UNPOLARIZEDFAB C1
U 1 1 5F02B22B
P 3150 4500
F 0 "C1" V 3058 4588 45  0000 L CNN
F 1 "10uF" V 3142 4588 45  0000 L CNN
F 2 "fab-C1206FAB" H 3180 4650 20  0001 C CNN
F 3 "" H 3150 4500 50  0001 C CNN
	1    3150 4500
	0    1    1    0   
$EndComp
Wire Wire Line
	3300 4250 3750 4250
Wire Wire Line
	4500 4050 4250 4050
Text GLabel 4500 4050 2    50   Input ~ 0
GND
Wire Wire Line
	3150 4650 3300 4650
Connection ~ 3150 4650
Wire Wire Line
	3150 4600 3150 4650
Wire Wire Line
	3150 4250 2950 4250
Connection ~ 3150 4250
Wire Wire Line
	3150 4300 3150 4250
Connection ~ 3300 4250
Wire Wire Line
	3300 4250 3300 4050
$Comp
L fab:LEDFAB1206 M2
U 1 1 5F076981
P 4150 4050
F 0 "M2" V 4354 4100 45  0000 C CNN
F 1 "LEDFAB1206" V 4270 4100 45  0000 C CNN
F 2 "fab-LED1206FAB" H 4180 4200 20  0001 C CNN
F 3 "" H 4150 4050 50  0001 C CNN
	1    4150 4050
	0    -1   -1   0   
$EndComp
$Comp
L fab:RES-US1206FAB R3
U 1 1 5F06DF91
P 3650 4050
F 0 "R3" H 3650 4244 45  0000 C CNN
F 1 "500R" H 3650 4160 45  0000 C CNN
F 2 "fab-R1206FAB" H 3680 4200 20  0001 C CNN
F 3 "" H 3650 4050 50  0001 C CNN
	1    3650 4050
	1    0    0    -1  
$EndComp
Wire Wire Line
	1950 4650 1600 4650
Text GLabel 1600 4650 0    50   Input ~ 0
GND
Wire Wire Line
	2950 4650 3150 4650
Text GLabel 3300 4650 2    50   Input ~ 0
GND
Wire Wire Line
	3300 4250 3150 4250
$Comp
L CUSTOM_POWER:BOOST_BUCK B1
U 1 1 5EFE8860
P 2450 4450
F 0 "B1" H 2400 4950 50  0000 L CNN
F 1 "BOOST_BUCK" H 2250 4450 50  0000 L CNN
F 2 "" H 2450 4550 50  0001 C CNN
F 3 "" H 2450 4550 50  0001 C CNN
	1    2450 4450
	1    0    0    -1  
$EndComp
Text GLabel 4500 4250 2    50   Input ~ 0
V-BUCK
Text GLabel 1600 4250 0    50   Input ~ 0
V12V
Text Notes 1100 3500 0    50   ~ 0
BOOST BUCK
Wire Notes Line
	8050 1050 10550 1050
Wire Notes Line
	10550 1050 10550 2650
Wire Notes Line
	10550 2650 8050 2650
Wire Notes Line
	8050 2650 8050 1050
Wire Notes Line
	10800 1050 13300 1050
Wire Notes Line
	13300 1050 13300 2750
Wire Notes Line
	13300 2750 10800 2750
Wire Notes Line
	10800 2750 10800 1050
Wire Notes Line
	16950 1000 19150 1000
Wire Notes Line
	19150 1000 19150 2550
Wire Notes Line
	19150 2550 16950 2550
Wire Notes Line
	16950 2550 16950 1000
Wire Notes Line
	16700 3000 19600 3000
Wire Notes Line
	19600 3000 19600 5250
Wire Notes Line
	19600 5250 16700 5250
Wire Notes Line
	16700 5250 16700 3000
Wire Notes Line
	19950 1000 22500 1000
Wire Notes Line
	22500 1000 22500 2550
Wire Notes Line
	22500 2550 19950 2550
Wire Notes Line
	19950 2550 19950 1000
Wire Notes Line
	20000 3000 22450 3000
Wire Notes Line
	22450 3000 22450 5100
Wire Notes Line
	22450 5100 20000 5100
Wire Notes Line
	20000 5100 20000 3000
$Comp
L fab:DIODESOD123 D1
U 1 1 5F2C2ABD
P 3850 4250
F 0 "D1" H 3900 4150 45  0000 C CNN
F 1 "1N4004" H 3950 4050 45  0000 C CNN
F 2 "fab-SOD123" H 3880 4400 20  0001 C CNN
F 3 "" H 3850 4250 50  0001 C CNN
	1    3850 4250
	1    0    0    -1  
$EndComp
Wire Wire Line
	3950 4250 4500 4250
Wire Wire Line
	3850 4050 3950 4050
Wire Wire Line
	3300 4050 3450 4050
$Comp
L Connector:Barrel_Jack_Switch J1
U 1 1 5F2E3D0B
P 1850 6400
F 0 "J1" H 1850 6800 50  0000 C CNN
F 1 "Barrel_Jack_Switch" H 1900 6700 50  0000 C CNN
F 2 "" H 1900 6360 50  0001 C CNN
F 3 "~" H 1900 6360 50  0001 C CNN
	1    1850 6400
	1    0    0    -1  
$EndComp
Text GLabel 2450 6300 2    50   Input ~ 0
V12V
Text GLabel 2450 6500 2    50   Input ~ 0
GND
Wire Wire Line
	2150 6500 2300 6500
Wire Wire Line
	2150 6300 2450 6300
Wire Wire Line
	2150 6400 2300 6400
Wire Wire Line
	2300 6400 2300 6500
Connection ~ 2300 6500
Wire Wire Line
	2300 6500 2450 6500
Wire Wire Line
	2100 12500 2500 12500
Wire Wire Line
	2500 11850 2500 12500
Connection ~ 2500 12500
Wire Wire Line
	2500 12500 2850 12500
$Comp
L pump:VALVE P1
U 1 1 5F3ED611
P 12100 11650
F 0 "P1" H 11904 12015 50  0000 C CNN
F 1 "VALVE" H 11904 11924 50  0000 C CNN
F 2 "" H 12100 11650 50  0001 C CNN
F 3 "" H 12100 11650 50  0001 C CNN
	1    12100 11650
	1    0    0    -1  
$EndComp
Text GLabel 10100 11000 0    50   Input ~ 0
V12V
Text GLabel 10100 12150 0    50   Input ~ 0
DMOSFET_01
$Comp
L fab:DIODESOD123 D2
U 1 1 5F3ED619
P 10700 11300
F 0 "D2" V 10700 11500 45  0000 R CNN
F 1 "DIODESOD123" V 10600 11900 45  0000 R CNN
F 2 "fab-SOD123" H 10730 11450 20  0001 C CNN
F 3 "" H 10700 11300 50  0001 C CNN
	1    10700 11300
	0    -1   -1   0   
$EndComp
$Comp
L fab:RES-US1206FAB R9
U 1 1 5F3ED61F
P 10700 11750
F 0 "R9" V 10658 11818 45  0000 L CNN
F 1 "10K" V 10742 11818 45  0000 L CNN
F 2 "fab-R1206FAB" H 10730 11900 20  0001 C CNN
F 3 "" H 10700 11750 50  0001 C CNN
	1    10700 11750
	0    1    1    0   
$EndComp
Wire Wire Line
	10100 11000 10700 11000
Wire Wire Line
	11150 11000 11150 11550
Wire Wire Line
	11150 11550 11850 11550
Wire Wire Line
	11850 11750 11150 11750
Wire Wire Line
	11150 11750 11150 12150
Wire Wire Line
	11150 12150 10700 12150
Wire Wire Line
	10700 12150 10700 11950
Connection ~ 10700 12150
Wire Wire Line
	10700 12150 10100 12150
Wire Wire Line
	10700 11550 10700 11400
Wire Wire Line
	10700 11200 10700 11000
Connection ~ 10700 11000
Wire Wire Line
	10700 11000 11150 11000
Wire Notes Line
	6600 10250 3950 10250
$Comp
L fab:NMOSFETSOT23 T2
U 1 1 5F441293
P 2500 8950
F 0 "T2" H 2608 8992 45  0000 L CNN
F 1 "NMOSFETSOT23" H 2608 8908 45  0000 L CNN
F 2 "fab-SOT-23" H 2530 9100 20  0001 C CNN
F 3 "" H 2500 8950 50  0001 C CNN
	1    2500 8950
	1    0    0    -1  
$EndComp
Text GLabel 1850 9050 0    50   Input ~ 0
GMOSFET_01
Wire Wire Line
	2300 9050 2100 9050
Text GLabel 2800 8550 2    50   Input ~ 0
DMOSFET_01
Wire Wire Line
	2800 8550 2500 8550
Wire Wire Line
	2500 8550 2500 8750
Text GLabel 2850 9800 2    50   Input ~ 0
GND
Connection ~ 2100 9050
Wire Wire Line
	2100 9050 1850 9050
$Comp
L fab:RES-US1206FAB R4
U 1 1 5F4412A1
P 2100 9400
F 0 "R4" V 2058 9468 45  0000 L CNN
F 1 "10K" V 2142 9468 45  0000 L CNN
F 2 "fab-R1206FAB" H 2130 9550 20  0001 C CNN
F 3 "" H 2100 9400 50  0001 C CNN
	1    2100 9400
	0    1    1    0   
$EndComp
Wire Wire Line
	2100 9200 2100 9050
Wire Wire Line
	2100 9600 2100 9800
Wire Wire Line
	2100 9800 2500 9800
Wire Wire Line
	2500 9150 2500 9800
Connection ~ 2500 9800
Wire Wire Line
	2500 9800 2850 9800
$Comp
L fab:NMOSFETSOT23 T4
U 1 1 5F447DFF
P 5350 8850
F 0 "T4" H 5458 8892 45  0000 L CNN
F 1 "NMOSFETSOT23" H 5458 8808 45  0000 L CNN
F 2 "fab-SOT-23" H 5380 9000 20  0001 C CNN
F 3 "" H 5350 8850 50  0001 C CNN
	1    5350 8850
	1    0    0    -1  
$EndComp
Text GLabel 4700 8950 0    50   Input ~ 0
GMOSFET_02
Wire Wire Line
	5150 8950 4950 8950
Text GLabel 5650 8450 2    50   Input ~ 0
DMOSFET_02
Wire Wire Line
	5650 8450 5350 8450
Wire Wire Line
	5350 8450 5350 8650
Text GLabel 5700 9700 2    50   Input ~ 0
GND
Connection ~ 4950 8950
Wire Wire Line
	4950 8950 4700 8950
$Comp
L fab:RES-US1206FAB R5
U 1 1 5F447E0D
P 4950 9300
F 0 "R5" V 4908 9368 45  0000 L CNN
F 1 "10K" V 4992 9368 45  0000 L CNN
F 2 "fab-R1206FAB" H 4980 9450 20  0001 C CNN
F 3 "" H 4950 9300 50  0001 C CNN
	1    4950 9300
	0    1    1    0   
$EndComp
Wire Wire Line
	4950 9100 4950 8950
Wire Wire Line
	4950 9500 4950 9700
Wire Wire Line
	4950 9700 5350 9700
Wire Wire Line
	5350 9050 5350 9700
Connection ~ 5350 9700
Wire Wire Line
	5350 9700 5700 9700
$Comp
L fab:NMOSFETSOT23 T5
U 1 1 5F4500CD
P 5350 11550
F 0 "T5" H 5458 11592 45  0000 L CNN
F 1 "NMOSFETSOT23" H 5458 11508 45  0000 L CNN
F 2 "fab-SOT-23" H 5380 11700 20  0001 C CNN
F 3 "" H 5350 11550 50  0001 C CNN
	1    5350 11550
	1    0    0    -1  
$EndComp
Text GLabel 4700 11650 0    50   Input ~ 0
GMOSFET_04
Wire Wire Line
	5150 11650 4950 11650
Text GLabel 5650 11150 2    50   Input ~ 0
DMOSFET_04
Wire Wire Line
	5650 11150 5350 11150
Wire Wire Line
	5350 11150 5350 11350
Text GLabel 5700 12400 2    50   Input ~ 0
GND
Connection ~ 4950 11650
Wire Wire Line
	4950 11650 4700 11650
$Comp
L fab:RES-US1206FAB R7
U 1 1 5F4500DB
P 4950 12000
F 0 "R7" V 4908 12068 45  0000 L CNN
F 1 "10K" V 4992 12068 45  0000 L CNN
F 2 "fab-R1206FAB" H 4980 12150 20  0001 C CNN
F 3 "" H 4950 12000 50  0001 C CNN
	1    4950 12000
	0    1    1    0   
$EndComp
Wire Wire Line
	4950 11800 4950 11650
Wire Wire Line
	4950 12200 4950 12400
Wire Wire Line
	4950 12400 5350 12400
Wire Wire Line
	5350 11750 5350 12400
Connection ~ 5350 12400
Wire Wire Line
	5350 12400 5700 12400
$Comp
L fab:NMOSFETSOT23 T1
U 1 1 5F4582D8
P 2450 14200
F 0 "T1" H 2558 14242 45  0000 L CNN
F 1 "NMOSFETSOT23" H 2558 14158 45  0000 L CNN
F 2 "fab-SOT-23" H 2480 14350 20  0001 C CNN
F 3 "" H 2450 14200 50  0001 C CNN
	1    2450 14200
	1    0    0    -1  
$EndComp
Text GLabel 1800 14300 0    50   Input ~ 0
GMOSFET_05
Wire Wire Line
	2250 14300 2050 14300
Text GLabel 2750 13800 2    50   Input ~ 0
DMOSFET_05
Wire Wire Line
	2750 13800 2450 13800
Wire Wire Line
	2450 13800 2450 14000
Text GLabel 2800 15050 2    50   Input ~ 0
GND
Connection ~ 2050 14300
Wire Wire Line
	2050 14300 1800 14300
$Comp
L fab:RES-US1206FAB R8
U 1 1 5F4582E6
P 2050 14650
F 0 "R8" V 2008 14718 45  0000 L CNN
F 1 "10K" V 2092 14718 45  0000 L CNN
F 2 "fab-R1206FAB" H 2080 14800 20  0001 C CNN
F 3 "" H 2050 14650 50  0001 C CNN
	1    2050 14650
	0    1    1    0   
$EndComp
Wire Wire Line
	2050 14450 2050 14300
Wire Wire Line
	2050 14850 2050 15050
Wire Wire Line
	2050 15050 2450 15050
Wire Wire Line
	2450 14400 2450 15050
Connection ~ 2450 15050
Wire Wire Line
	2450 15050 2800 15050
Text Notes 9150 10500 0    50   ~ 0
VALVE (01)
Wire Notes Line
	9050 10300 12900 10300
Wire Notes Line
	12900 10300 12900 12800
Wire Notes Line
	12900 12800 9050 12800
Wire Notes Line
	9050 12800 9050 10300
$Comp
L pump:VALVE P3
U 1 1 5F474CF0
P 16250 11650
F 0 "P3" H 16054 12015 50  0000 C CNN
F 1 "VALVE" H 16054 11924 50  0000 C CNN
F 2 "" H 16250 11650 50  0001 C CNN
F 3 "" H 16250 11650 50  0001 C CNN
	1    16250 11650
	1    0    0    -1  
$EndComp
Text GLabel 14250 11000 0    50   Input ~ 0
V12V
Text GLabel 14250 12150 0    50   Input ~ 0
DMOSFET_02
$Comp
L fab:DIODESOD123 D4
U 1 1 5F474CF8
P 14850 11300
F 0 "D4" V 14850 11500 45  0000 R CNN
F 1 "DIODESOD123" V 14750 11900 45  0000 R CNN
F 2 "fab-SOD123" H 14880 11450 20  0001 C CNN
F 3 "" H 14850 11300 50  0001 C CNN
	1    14850 11300
	0    -1   -1   0   
$EndComp
$Comp
L fab:RES-US1206FAB R10
U 1 1 5F474CFE
P 14850 11750
F 0 "R10" V 14808 11818 45  0000 L CNN
F 1 "10K" V 14892 11818 45  0000 L CNN
F 2 "fab-R1206FAB" H 14880 11900 20  0001 C CNN
F 3 "" H 14850 11750 50  0001 C CNN
	1    14850 11750
	0    1    1    0   
$EndComp
Wire Wire Line
	14250 11000 14850 11000
Wire Wire Line
	15300 11000 15300 11550
Wire Wire Line
	15300 11550 16000 11550
Wire Wire Line
	16000 11750 15300 11750
Wire Wire Line
	15300 11750 15300 12150
Wire Wire Line
	15300 12150 14850 12150
Wire Wire Line
	14850 12150 14850 11950
Connection ~ 14850 12150
Wire Wire Line
	14850 12150 14250 12150
Wire Wire Line
	14850 11550 14850 11400
Wire Wire Line
	14850 11200 14850 11000
Connection ~ 14850 11000
Wire Wire Line
	14850 11000 15300 11000
Text Notes 13300 10500 0    50   ~ 0
VALVE (02)
Wire Notes Line
	13200 10300 17050 10300
Wire Notes Line
	17050 10300 17050 12800
Wire Notes Line
	17050 12800 13200 12800
Wire Notes Line
	13200 12800 13200 10300
$Comp
L pump:VALVE P2
U 1 1 5F47F9FD
P 12100 14500
F 0 "P2" H 11904 14865 50  0000 C CNN
F 1 "VALVE" H 11904 14774 50  0000 C CNN
F 2 "" H 12100 14500 50  0001 C CNN
F 3 "" H 12100 14500 50  0001 C CNN
	1    12100 14500
	1    0    0    -1  
$EndComp
Text GLabel 10100 13850 0    50   Input ~ 0
V12V
Text GLabel 10100 15000 0    50   Input ~ 0
DMOSFET_03
$Comp
L fab:DIODESOD123 D3
U 1 1 5F47FA05
P 10700 14150
F 0 "D3" V 10700 14350 45  0000 R CNN
F 1 "DIODESOD123" V 10600 14750 45  0000 R CNN
F 2 "fab-SOD123" H 10730 14300 20  0001 C CNN
F 3 "" H 10700 14150 50  0001 C CNN
	1    10700 14150
	0    -1   -1   0   
$EndComp
$Comp
L fab:RES-US1206FAB R11
U 1 1 5F47FA0B
P 10700 14600
F 0 "R11" V 10658 14668 45  0000 L CNN
F 1 "10K" V 10742 14668 45  0000 L CNN
F 2 "fab-R1206FAB" H 10730 14750 20  0001 C CNN
F 3 "" H 10700 14600 50  0001 C CNN
	1    10700 14600
	0    1    1    0   
$EndComp
Wire Wire Line
	10100 13850 10700 13850
Wire Wire Line
	11150 13850 11150 14400
Wire Wire Line
	11150 14400 11850 14400
Wire Wire Line
	11850 14600 11150 14600
Wire Wire Line
	11150 14600 11150 15000
Wire Wire Line
	11150 15000 10700 15000
Wire Wire Line
	10700 15000 10700 14800
Connection ~ 10700 15000
Wire Wire Line
	10700 15000 10100 15000
Wire Wire Line
	10700 14400 10700 14250
Wire Wire Line
	10700 14050 10700 13850
Connection ~ 10700 13850
Wire Wire Line
	10700 13850 11150 13850
Text Notes 9150 13350 0    50   ~ 0
VALVE (03)
Wire Notes Line
	9050 13150 12900 13150
Wire Notes Line
	12900 13150 12900 15650
Wire Notes Line
	12900 15650 9050 15650
Wire Notes Line
	9050 15650 9050 13150
$Comp
L pump:VALVE P4
U 1 1 5F48AEBF
P 16300 14500
F 0 "P4" H 16104 14865 50  0000 C CNN
F 1 "VALVE" H 16104 14774 50  0000 C CNN
F 2 "" H 16300 14500 50  0001 C CNN
F 3 "" H 16300 14500 50  0001 C CNN
	1    16300 14500
	1    0    0    -1  
$EndComp
Text GLabel 14300 13850 0    50   Input ~ 0
V12V
Text GLabel 14300 15000 0    50   Input ~ 0
DMOSFET_04
$Comp
L fab:DIODESOD123 D5
U 1 1 5F48AEC7
P 14900 14150
F 0 "D5" V 14900 14350 45  0000 R CNN
F 1 "DIODESOD123" V 14800 14750 45  0000 R CNN
F 2 "fab-SOD123" H 14930 14300 20  0001 C CNN
F 3 "" H 14900 14150 50  0001 C CNN
	1    14900 14150
	0    -1   -1   0   
$EndComp
$Comp
L fab:RES-US1206FAB R12
U 1 1 5F48AECD
P 14900 14600
F 0 "R12" V 14858 14668 45  0000 L CNN
F 1 "10K" V 14942 14668 45  0000 L CNN
F 2 "fab-R1206FAB" H 14930 14750 20  0001 C CNN
F 3 "" H 14900 14600 50  0001 C CNN
	1    14900 14600
	0    1    1    0   
$EndComp
Wire Wire Line
	14300 13850 14900 13850
Wire Wire Line
	15350 13850 15350 14400
Wire Wire Line
	15350 14400 16050 14400
Wire Wire Line
	16050 14600 15350 14600
Wire Wire Line
	15350 14600 15350 15000
Wire Wire Line
	15350 15000 14900 15000
Wire Wire Line
	14900 15000 14900 14800
Connection ~ 14900 15000
Wire Wire Line
	14900 15000 14300 15000
Wire Wire Line
	14900 14400 14900 14250
Wire Wire Line
	14900 14050 14900 13850
Connection ~ 14900 13850
Wire Wire Line
	14900 13850 15350 13850
Text Notes 13350 13350 0    50   ~ 0
VALVE (04)
Wire Notes Line
	13250 13150 17100 13150
Wire Notes Line
	17100 13150 17100 15650
Wire Notes Line
	17100 15650 13250 15650
Wire Notes Line
	13250 15650 13250 13150
Text GLabel 19250 11000 0    50   Input ~ 0
V12V
Text GLabel 19250 12150 0    50   Input ~ 0
DMOSFET_05
$Comp
L fab:DIODESOD123 D6
U 1 1 5F4C3E11
P 19850 11300
F 0 "D6" V 19850 11500 45  0000 R CNN
F 1 "DIODESOD123" V 19750 11900 45  0000 R CNN
F 2 "fab-SOD123" H 19880 11450 20  0001 C CNN
F 3 "" H 19850 11300 50  0001 C CNN
	1    19850 11300
	0    -1   -1   0   
$EndComp
$Comp
L fab:RES-US1206FAB R13
U 1 1 5F4C3E17
P 19850 11750
F 0 "R13" V 19808 11818 45  0000 L CNN
F 1 "10K" V 19892 11818 45  0000 L CNN
F 2 "fab-R1206FAB" H 19880 11900 20  0001 C CNN
F 3 "" H 19850 11750 50  0001 C CNN
	1    19850 11750
	0    1    1    0   
$EndComp
Wire Wire Line
	19250 11000 19850 11000
Wire Wire Line
	20300 11000 20300 11550
Wire Wire Line
	20300 11550 21000 11550
Wire Wire Line
	21000 11750 20300 11750
Wire Wire Line
	20300 11750 20300 12150
Wire Wire Line
	20300 12150 19850 12150
Wire Wire Line
	19850 12150 19850 11950
Connection ~ 19850 12150
Wire Wire Line
	19850 12150 19250 12150
Wire Wire Line
	19850 11550 19850 11400
Wire Wire Line
	19850 11200 19850 11000
Connection ~ 19850 11000
Wire Wire Line
	19850 11000 20300 11000
Text Notes 18300 10500 0    50   ~ 0
AIR PUMP
Wire Notes Line
	18200 10300 22050 10300
Wire Notes Line
	22050 10300 22050 12800
Wire Notes Line
	22050 12800 18200 12800
Wire Notes Line
	18200 12800 18200 10300
$Comp
L pump:PUMP P5
U 1 1 5F4D0D6C
P 21350 11650
F 0 "P5" H 21628 11696 50  0000 L CNN
F 1 "PUMP" H 21628 11605 50  0000 L CNN
F 2 "" H 21350 11650 50  0001 C CNN
F 3 "" H 21350 11650 50  0001 C CNN
	1    21350 11650
	1    0    0    -1  
$EndComp
Text GLabel 14950 7700 2    50   Input ~ 0
GMOSFET_01
Text GLabel 14950 7500 2    50   Input ~ 0
GMOSFET_02
Text GLabel 14950 7250 2    50   Input ~ 0
GMOSFET_03
Text GLabel 14950 7050 2    50   Input ~ 0
GMOSFET_04
Text GLabel 14950 6800 2    50   Input ~ 0
GMOSFET_05
Entry Wire Line
	4800 6550 4900 6650
Text GLabel 19100 7050 0    50   Input ~ 0
LED_01
$Comp
L fab:RES-US1206FAB R15
U 1 1 5F4F1C62
P 19550 7050
F 0 "R15" H 19550 7244 45  0000 C CNN
F 1 "RES-US1206FAB" H 19550 7160 45  0000 C CNN
F 2 "fab-R1206FAB" H 19580 7200 20  0001 C CNN
F 3 "" H 19550 7050 50  0001 C CNN
	1    19550 7050
	1    0    0    -1  
$EndComp
Text GLabel 20700 7050 2    50   Input ~ 0
GND
Wire Wire Line
	20700 7050 20350 7050
Wire Wire Line
	20050 7050 19750 7050
Wire Wire Line
	19350 7050 19100 7050
Text GLabel 19100 7550 0    50   Input ~ 0
LED_02
$Comp
L fab:LEDFAB1206 M6
U 1 1 5F4F1C79
P 20250 7550
F 0 "M6" V 20454 7600 45  0000 C CNN
F 1 "LEDFAB1206" V 20370 7600 45  0000 C CNN
F 2 "fab-LED1206FAB" H 20280 7700 20  0001 C CNN
F 3 "" H 20250 7550 50  0001 C CNN
	1    20250 7550
	0    -1   -1   0   
$EndComp
Text GLabel 20700 7550 2    50   Input ~ 0
GND
Wire Wire Line
	20700 7550 20350 7550
Wire Wire Line
	20050 7550 19750 7550
Wire Wire Line
	19350 7550 19100 7550
Text GLabel 19100 8100 0    50   Input ~ 0
LED_03
$Comp
L fab:RES-US1206FAB R17
U 1 1 5F4F1C84
P 19550 8100
F 0 "R17" H 19550 8294 45  0000 C CNN
F 1 "RES-US1206FAB" H 19550 8210 45  0000 C CNN
F 2 "fab-R1206FAB" H 19580 8250 20  0001 C CNN
F 3 "" H 19550 8100 50  0001 C CNN
	1    19550 8100
	1    0    0    -1  
$EndComp
$Comp
L fab:LEDFAB1206 M7
U 1 1 5F4F1C8A
P 20250 8100
F 0 "M7" V 20454 8150 45  0000 C CNN
F 1 "LEDFAB1206" V 20370 8150 45  0000 C CNN
F 2 "fab-LED1206FAB" H 20280 8250 20  0001 C CNN
F 3 "" H 20250 8100 50  0001 C CNN
	1    20250 8100
	0    -1   -1   0   
$EndComp
Text GLabel 20700 8100 2    50   Input ~ 0
GND
Wire Wire Line
	20700 8100 20350 8100
Wire Wire Line
	20050 8100 19750 8100
Wire Wire Line
	19350 8100 19100 8100
Text Notes 18450 6400 0    50   ~ 0
LED
$Comp
L fab:RES-US1206FAB R16
U 1 1 5F4F1C73
P 19550 7550
F 0 "R16" H 19550 7744 45  0000 C CNN
F 1 "RES-US1206FAB" H 19550 7660 45  0000 C CNN
F 2 "fab-R1206FAB" H 19580 7700 20  0001 C CNN
F 3 "" H 19550 7550 50  0001 C CNN
	1    19550 7550
	1    0    0    -1  
$EndComp
Wire Notes Line
	18350 6250 21450 6250
Wire Notes Line
	21450 6250 21450 8650
Wire Notes Line
	21450 8650 18350 8650
Wire Notes Line
	18350 8650 18350 6250
Text GLabel 14950 6450 2    50   Input ~ 0
LED_01
Text GLabel 14950 6550 2    50   Input ~ 0
LED_02
Text GLabel 14950 6650 2    50   Input ~ 0
LED_03
$Comp
L fab:LEDFAB1206 M5
U 1 1 5F4F1C68
P 20250 7050
F 0 "M5" V 20454 7100 45  0000 C CNN
F 1 "LEDFAB1206" V 20370 7100 45  0000 C CNN
F 2 "fab-LED1206FAB" H 20280 7200 20  0001 C CNN
F 3 "" H 20250 7050 50  0001 C CNN
	1    20250 7050
	0    -1   -1   0   
$EndComp
$EndSCHEMATC
